[
  {
    "text": "Main Navigation",
    "heading": "true",
    "translate": "sidebar.heading.HEADER"
  },
  {
    "text": "Dashboard",
    "sref": "app.dashboard",
    "icon": "icon-speedometer",
    "translate": "sidebar.nav.DASHBOARD"
  },
  {
    "text": "Widgets",
    "sref": "app.widgets",
    "icon": "icon-grid",
    "alert": "30",
    "translate": "sidebar.nav.WIDGETS"
  },
  {
    "text": "Reference",
    "sref": "#",
    "icon": "icon-chemistry",
    "alert": "+",
    "submenu": [
      {
        "text": "Area",
        "sref": "app.area",
        "translate": "sidebar.nav.reference.AREA"
      },
      {
        "text": "Vehicle",
        "sref": "app.vehicle",
        "translate": "sidebar.nav.reference.VEHICLE"
      },
      {
        "text": "Brand",
        "sref": "app.brand",
        "translate": "sidebar.nav.reference.BRAND"
      },
      {
        "text": "Product",
        "sref": "app.product",
        "translate": "sidebar.nav.reference.PRODUCT"
      },
      {
        "text": "Category",
        "sref": "app.category",
        "translate": "sidebar.nav.reference.CATEGORY"
      }
    ],
    "translate": "sidebar.heading.REFERENCE"
  },
  {
    "text": "Inventory",
    "sref": "#",
    "icon": "icon-chemistry",
    "alert": "+",
    "submenu": [
      {
        "text": "Item",
        "sref": "app.item",
        "translate": "sidebar.nav.reference.ITEM"
      },
      {
        "text": "Lot",
        "sref": "app.lot",
        "translate": "sidebar.nav.reference.LOT"
      },
      {
        "text": "Vehicle Stock",
        "sref": "app.vehicleStock",
        "translate": "sidebar.nav.reference.VEHICLESTOCK"
      }
    ],
    "translate": "sidebar.heading.INVENTORY"
  },
  {
    "text": "Sales",
    "sref": "#",
    "icon": "icon-chemistry",
    "alert": "+",
    "submenu": [
      {
        "text": "Bill",
        "sref": "app.bill",
        "translate": "sidebar.nav.reference.BILL"
      }
    ],
    "translate": "sidebar.heading.SALES"
  },
  {
    "text": "Documentation",
    "sref": "app.documentation",
    "icon": "icon-graduation",
    "translate": "sidebar.nav.DOCUMENTATION"
  }
]
